{
  "name" : "Offkai2024 Schedule",
  "entries" : [
    {
      "endDate" : "2024-05-31T12:00-07:00",
      "name" : "Opening Cermony",
      "description" : "The kickoff of OffKai Expo Gen 3! We’re looking forward to seeing you there!",
      "maturity" : "",
      "type" : "Opening Ceremony",
      "startDate" : "2024-05-31T11:30-07:00",
      "location" : {
        "name" : "Main Stage"
      },
      "id" : "1",
      "presenters" : [
        {
          "name" : "OffKai Expo"
        }
      ]
    },
    {
      "description" : "Kaela and Bijou compete with each others’ fans, aswering questions about each other! Get complimented by your Oshi for getting the answers right… or receive punishment.",
      "endDate" : "2024-05-31T13:00-07:00",
      "startDate" : "2024-05-31T12:00-07:00",
      "type" : "Panel",
      "name" : "GrindStones’ ROCKIN’ HARD quiz: You VS Kaela and Bijou",
      "presenters" : [
        {
          "name" : "Kaela Kovalskia"
        },
        {
          "name" : "Koseki Bijou"
        }
      ],
      "id" : "2",
      "maturity" : "",
      "location" : {
        "name" : "Main Stage"
      }
    },
    {
      "maturity" : "",
      "location" : {
        "name" : "Panel Room 1"
      },
      "endDate" : "2024-05-31T13:00-07:00",
      "description" : "Ever wondered how VTubers control their avatars? Interested in starting VTubing yourself? Come find out the programs and hardware involved in VTubing! From independent to Hololive we’ll intro how VTubers do what they do. We’ll also show you how you can start VTubing TODAY!",
      "startDate" : "2024-05-31T12:00-07:00",
      "id" : "3",
      "name" : "VTuber Mocap Tech",
      "presenters" : [
        {
          "name" : "Oshi Live"
        }
      ],
      "type" : "Panel"
    },
    {
      "presenters" : [
        {
          "name" : "Yoclesh"
        }
      ],
      "name" : "You suggest, Yoclesh Designs!",
      "maturity" : "",
      "location" : {
        "name" : "Panel Room 2"
      },
      "id" : "4",
      "type" : "Panel",
      "description" : "You want to see a character with wings? Horns? Armor or a cute Maid dress? Or all these features mixed? No problem! Yocci welcomes you to the panel to bring a brain stacked with ideas as she will design a female character live with implementing your suggestions into the design.",
      "endDate" : "2024-06-01T13:30-07:00",
      "startDate" : "2024-06-01T12:30-07:00"
    },
    {
      "description" : "A real hologram concert featuring roller rodent race queen Ashton Marten with a spacey twist! Take a trip to the stars with Ashton for her 2nd ever solo live concert where she takes one giant leap for chilla-kind and discovers what cheese the moon is really made out of.",
      "maturity" : "",
      "presenters" : [
        {
          "name" : "Ashton Marten"
        }
      ],
      "id" : "5",
      "startDate" : "2024-05-31T12:30-07:00",
      "name" : "『 Space 🪐 Cadet 』 Ashton Marten 2nd chinchilLIVE",
      "endDate" : "2024-05-31T13:30-07:00",
      "type" : "Performance",
      "location" : {
        "name" : "Community Stage"
      }
    },
    {
      "description" : "BriAtCookiebox has come to OffKai to craft a masterpiece of an entirely self written song- with your help! Have you ever wanted to be involved in the making of a beautifully sung and magnificently mastered song? That won’t happen today, but that is a great dream to have! Come participate in the making of an entirely acapella song. Play a role in writing lyrics, making a beat, and watching Bri embarrass herself as she attempts to write a song in 1 hour with no musical experience or training.",
      "location" : {
        "name" : "Panel Room 2"
      },
      "endDate" : "2024-05-31T13:30-07:00",
      "id" : "6",
      "name" : "hey u should come to this panel",
      "maturity" : "",
      "type" : "Panel",
      "presenters" : [
        {
          "name" : "BriAtCookiebox"
        }
      ],
      "startDate" : "2024-05-31T12:30-07:00"
    },
    {
      "maturity" : "",
      "endDate" : "2024-05-31T15:00-07:00",
      "type" : "Panel",
      "id" : "7",
      "description" : "Come join Mint and VShojo’s Matara as they do their Summer Special Podcast Show! Join us as you can hear about their latest news! They will be doing Q&A after so be ready with questions!",
      "name" : "Mint & Matara's Summer Show at OffKai",
      "location" : {
        "name" : "Main Stage"
      },
      "startDate" : "2024-05-31T14:00-07:00",
      "presenters" : [
        {
          "name" : "Mint Fantôme"
        },
        {
          "name" : "Matara Kan"
        }
      ]
    },
    {
      "description" : "V4Mirai’s Lunalia generation has some hot takes prepared, and they need you to judge their worthiness! Join the audience in cheering (or jeering) these hot takes!",
      "maturity" : "",
      "type" : "Panel",
      "presenters" : [
        {
          "name" : "Alias Anono"
        },
        {
          "name" : "REM Kanashibari"
        },
        {
          "name" : "Yumi the Witch"
        },
        {
          "name" : ""
        },
        {
          "name" : "Dr. Nova(e)"
        }
      ],
      "location" : {
        "name" : "Panel Room 1"
      },
      "id" : "8",
      "startDate" : "2024-05-31T14:00-07:00",
      "name" : "V4Mirai's Lunalia play Hear Me Out!",
      "endDate" : "2024-05-31T15:00-07:00"
    },
    {
      "description" : "Do you want to say you worked out with Jeff McBiceps?? Together we will get those muscles pumping!! Plus, the first ever Gymterviews LIVE! The talk show where you can only talk while exercising. Will Vite Ramen founder Tim survive every level of the interview gauntlet? Finally, you as an audience will vote on ingredients to make the world’s best(?) protein shake, and Jeff will be answering all of your fitness questions! Hope you are ready for a buff time!",
      "location" : {
        "name" : "Community Stage"
      },
      "maturity" : "",
      "id" : "9",
      "presenters" : [
        {
          "name" : "Jeff McBiceps"
        },
        {
          "name" : "Tim (Vite Ramen CEO)"
        }
      ],
      "startDate" : "2024-05-31T17:00-07:00",
      "type" : "Panel",
      "endDate" : "#VALUE!-07:00",
      "name" : "Group Lifting and Gymterviews LIVE!!"
    },
    {
      "id" : "10",
      "presenters" : [
        {
          "name" : "Amiya Aranha"
        }
      ],
      "name" : "So You Wanna Play Old Games?",
      "startDate" : "2024-05-31T14:30-07:00",
      "description" : "Retro game VTuber Amiya Aranha tells you everything you need to know about streaming games using your old consoles! Covering everything from playing Doom on a calculator to getting that old SNES in streaming shape, if you’re looking to stream from your original retro hardware, this panel is for you!",
      "type" : "Panel",
      "maturity" : "",
      "endDate" : "2024-05-31T15:30-07:00",
      "location" : {
        "name" : "Panel Room 2"
      }
    },
    {
      "presenters" : [
        {
          "name" : "Apollo"
        },
        {
          "name" : "Hades"
        },
        {
          "name" : "Poseidon"
        },
        {
          "name" : ""
        },
        {
          "name" : "Zeus"
        }
      ],
      "endDate" : "2024-05-31T15:00-07:00",
      "id" : "11",
      "type" : "Panel",
      "maturity" : "18+",
      "startDate" : "2024-05-31T14:00-07:00",
      "description" : "Doing a Q\/A, focused around the behind-the-scenes processes of Mythos, as well as general information about what the agency is all about, our goal with VTubing, as well as how we stand out. Memeing around is also included.",
      "location" : {
        "name" : "Panel Room 3"
      },
      "name" : "The Mythos Panel"
    },
    {
      "description" : "Join Idol and V4Mirai for two hours of songs! This massive concert stars over two dozen singers – come sing along!",
      "maturity" : "",
      "location" : {
        "name" : "Main Stage"
      },
      "id" : "12",
      "type" : "Performance",
      "endDate" : "2024-05-31T18:00-07:00",
      "name" : "Idol x V4Mirai: OffKairaoke Concert",
      "startDate" : "2024-05-31T16:00-07:00",
      "presenters" : [
        {
          "name" : "idol"
        },
        {
          "name" : "V4Mirai"
        }
      ]
    },
    {
      "description" : "BZZZT!! Do you have what it takes to win a game show about VTubers?! Let’s put your knowledge to the test! Come along for an hour of fun with Airi Viridis, Elia Stellaria, kirispica and Mozumi Pichi! (potential to win prizes!)",
      "name" : "V-Dere VTuber Game Show!",
      "presenters" : [
        {
          "name" : "Airi Viridis"
        },
        {
          "name" : "Elia Stellaria"
        },
        {
          "name" : "kirispica"
        },
        {
          "name" : ""
        },
        {
          "name" : "Mozumi Pichi"
        }
      ],
      "location" : {
        "name" : "Panel Room 1"
      },
      "maturity" : "",
      "type" : "Panel",
      "endDate" : "2024-05-31T17:00-07:00",
      "id" : "13",
      "startDate" : "2024-05-31T16:00-07:00"
    },
    {
      "id" : "14",
      "name" : "Referencing 3D for Live2d Rigging",
      "type" : "Panel",
      "maturity" : "",
      "presenters" : [
        {
          "name" : "BIG HAM"
        }
      ],
      "location" : {
        "name" : "Panel Room 3"
      },
      "startDate" : "2024-05-31T16:00-07:00",
      "description" : "Can’t quite visualize what a pouch looks like turning in space? Say less. BIG HAM is here to share some insight on how to utilize 3D models to improve your rigging angles in Cubism Live2D. This panel covers how to utilize 3D resources into reference for Live2D rigging. The panel is suitable for all levels of rigging artists, as well as people who have interest in starting out but need a bit of visual guidance.",
      "endDate" : "2024-05-31T17:00-07:00"
    },
    {
      "location" : {
        "name" : "Community Stage"
      },
      "maturity" : "",
      "presenters" : [
        {
          "name" : "Saya Sairroxs"
        },
        {
          "name" : "Hikanari Hina"
        },
        {
          "name" : "Runie Ruse"
        },
        {
          "name" : "Muu Muyu"
        },
        {
          "name" : ""
        },
        {
          "name" : "Eimi Isami"
        }
      ],
      "id" : "15",
      "name" : "Intro to Euphoria",
      "description" : "Here comes the new kids on the block! It’s Euphoria’s very first convention appearance – a very rare chance to experience the first-time magic!",
      "endDate" : "2024-05-31T19:30-07:00",
      "startDate" : "2024-05-31T18:30-07:00",
      "type" : "Panel"
    },
    {
      "id" : "16",
      "endDate" : "2024-05-31T17:30-07:00",
      "name" : "How To Create Your VTuber Cosplay 101",
      "startDate" : "2024-05-31T16:30-07:00",
      "location" : {
        "name" : "Panel Room 2"
      },
      "maturity" : "",
      "type" : "Panel",
      "presenters" : [
        {
          "name" : "A.N.N.J System"
        }
      ],
      "description" : "Ever wanted to cosplay as your VTuber Model but didn’t know where to start? VTuber & Cosplay Veteran A.N.N.J. System is here to help (Joined by cosplay creator friends Tokkitan & YuzuPyon)! Offering a beginner friendly step-by-step guide on how to make common VTuber parts like animal ears, wings, skirts, horns, tails, etc! Included: Reviewing Audience VTuber Submissions Live & demonstrating how we would make it real! Let us do the planning for you, so you can cosplay as your VTuber self today!"
    },
    {
      "type" : "Panel",
      "presenters" : [
        {
          "name" : "Rita Kamishiro"
        },
        {
          "name" : "Pina Pengin"
        },
        {
          "name" : "Jun Akane"
        },
        {
          "name" : "Nana Asteria"
        },
        {
          "name" : ""
        },
        {
          "name" : "Ami Amami"
        }
      ],
      "maturity" : "",
      "description" : "Are you a VTuber contemplating joining an agency? Maybe you wanna try striking it out on your own as an indie? Join the former PRISM Project talents Rita, Pina, Jun, Nana, and Ami as they share their diverse experiences and perspectives on creating content as part of an agency and as independents!",
      "endDate" : "2024-05-31T19:00-07:00",
      "startDate" : "2024-05-31T18:00-07:00",
      "id" : "17",
      "location" : {
        "name" : "Panel Room 1"
      },
      "name" : "Agency or Indie?"
    },
    {
      "maturity" : "",
      "id" : "18",
      "location" : {
        "name" : "Panel Room 3"
      },
      "description" : "Interested in voice acting, but no idea where to start? Join Obake PAM, as she gives tips on some easy ways to get started, even if you’ve never tried before!",
      "presenters" : [
        {
          "name" : "Obake PAM"
        }
      ],
      "startDate" : "2024-05-31T18:00-07:00",
      "name" : "New to voice acting?",
      "type" : "Panel",
      "endDate" : "2024-05-31T19:00-07:00"
    },
    {
      "name" : "eirene in Wonderland",
      "startDate" : "2024-05-31T20:00-07:00",
      "type" : "Performance",
      "presenters" : [
        {
          "name" : "eirene"
        }
      ],
      "id" : "19",
      "maturity" : "",
      "endDate" : "2024-05-31T20:30-07:00",
      "location" : {
        "name" : "Community Stage"
      },
      "description" : "eirene in Wonderland is a unique, first of its kind 2D VConcert! Using techniques only VTubing can allow, eirene will be performing multiple original songs with instantaneous changes into outfits and sets that couldn’t be achieved otherwise. Come see an event like you’ve never seen, and be prepared for anything…"
    },
    {
      "presenters" : [
        {
          "name" : "Kai Saikota"
        }
      ],
      "location" : {
        "name" : "Main Stage"
      },
      "endDate" : "2024-05-31T20:00-07:00",
      "type" : "Panel",
      "startDate" : "2024-05-31T19:00-07:00",
      "description" : "Our idol news program is called “Idol Alert” – our host Kai Saikota will briefly walk thru Idol event updates & then members of various gens will participate in a Family Feud game with audience answers!",
      "id" : "20",
      "name" : "Idol Alert: Special Edition!",
      "maturity" : ""
    },
    {
      "description" : "Come join Kemono Friends V Project’s Hululu and Coyote in our Japari Park games! Who will win, Coyo or Hululu? We are looking for your help in this battle for the delicious Japari Buns!  Everyone is welcomed to watch and\/or participate!",
      "name" : "JAPARI PARK GAMES! Let the Battle Begin.",
      "presenters" : [
        {
          "name" : "Coyote (Coyo)"
        },
        {
          "name" : "Humboldt Penguin (Hululu)"
        }
      ],
      "id" : "21",
      "location" : {
        "name" : "Panel Room 1"
      },
      "endDate" : "2024-05-31T21:00-07:00",
      "maturity" : "",
      "type" : "Panel",
      "startDate" : "2024-05-31T20:00-07:00"
    },
    {
      "type" : "Panel",
      "startDate" : "2024-05-31T22:30-07:00",
      "description" : "They’ve done it on stream, but now they’re doing it live! Come and pick Zolon and Vex’s brains live while they pester each other on stage and have fun telling tales and giving worldly advice to those in need!",
      "location" : {
        "name" : "Community Stage"
      },
      "name" : "Mom and Dad Advice with Vexoria and Zolon",
      "id" : "22",
      "maturity" : "18+",
      "endDate" : "2024-05-31T23:30-07:00",
      "presenters" : [
        {
          "name" : "Vexoria the Sun Eater"
        },
        {
          "name" : "Zolon"
        }
      ]
    },
    {
      "location" : {
        "name" : "Panel Room 3"
      },
      "endDate" : "2024-05-31T22:30-07:00",
      "type" : "Panel",
      "description" : "Supported by JAST and OffKai Night Market, we’re bringing a funny twist to your favorite hentai scenes! Put yourself to the test by creating silly improve dubbing of the lewdest scenes presented by experts Nyaru and Lilybelle!",
      "id" : "23",
      "startDate" : "2024-05-31T21:30-07:00",
      "name" : "VTubers Dub Hentai",
      "maturity" : "18+",
      "presenters" : [
        {
          "name" : "nyaruchuuu"
        },
        {
          "name" : "Lilybelle"
        }
      ]
    },
    {
      "description" : "Meet Lewdtubers el_XoX, Fefe, Projekt Melody, and Vexoria the Sun Eater. Learn about Lewdtubing and join them! For an audience, interactive Strip Tease! Lewdtubers VS Coomers which is you! Will you be able to see all of these lovely VTubers naked in one night? An 18+ panel hosted by el_XoX!",
      "presenters" : [
        {
          "name" : "el_XoX"
        },
        {
          "name" : "Fefe"
        },
        {
          "name" : "Projekt Melody"
        },
        {
          "name" : ""
        },
        {
          "name" : "Vexoria the Sun Eater"
        }
      ],
      "endDate" : "2024-06-01T01:00-07:00",
      "startDate" : "2024-06-01T00:00-07:00",
      "location" : {
        "name" : "Community Stage"
      },
      "type" : "Panel",
      "maturity" : "18+",
      "id" : "24",
      "name" : "LEWDTUBER PANEL"
    },
    {
      "description" : "Featuring the gyaru pyarus of the doujinshi podcast GyaruCast: Reiyu GuiGui, Ichigo Lemonade & Kumo Kuddelmuddel. Sharing their thoughts on doujinshi and hentai, the Gals invite you to join them and participate as part of the audience!  Come discuss doujinshi, hentai, and the NSFW side of vtubing with the Gals.",
      "startDate" : "2024-05-31T23:30-07:00",
      "id" : "25",
      "name" : "GyaruCast Live",
      "maturity" : "18+",
      "presenters" : [
        {
          "name" : "Reiyu GuiGui"
        },
        {
          "name" : "Ichigo Lemonade"
        },
        {
          "name" : ""
        },
        {
          "name" : "Kumo Kuddelmuddel"
        }
      ],
      "location" : {
        "name" : "Panel Room 3"
      },
      "endDate" : "2024-06-01T00:30-07:00",
      "type" : "Panel"
    },
    {
      "type" : "Performance",
      "name" : "#にゃるSuperLive ~Yakkai Idol Party: TIGER OK~",
      "presenters" : [
        {
          "name" : "nyaruchuuu"
        }
      ],
      "maturity" : "",
      "id" : "26",
      "location" : {
        "name" : "Community Stage"
      },
      "endDate" : "2024-06-01T11:00-07:00",
      "description" : "Come Wotagei All Night Long! Your #1 Eternal Shooting Star Idol comes back to OffKai for a 3rd year to present the yakkiest idol concert at OffKai Expo! TIGER OK!",
      "startDate" : "2024-06-01T10:00-07:00"
    },
    {
      "presenters" : [
        {
          "name" : "Tomoe Umari"
        }
      ],
      "endDate" : "2024-06-01T11:30-07:00",
      "location" : {
        "name" : "Panel Room 2"
      },
      "startDate" : "2024-06-01T10:30-07:00",
      "maturity" : "",
      "name" : "Establishing a Brand as a VTuber",
      "type" : "Panel",
      "id" : "27",
      "description" : "This panel will cover the importance of incorporating one’s image as a VTuber into every aspect of their content creation and social media presence. It’ll also go over the building blocks of branding, and what one can do to help distinguish themselves and thrive!"
    },
    {
      "name" : "The Disappearance of Pippa & Tenma",
      "location" : {
        "name" : "Main Stage"
      },
      "startDate" : "2024-06-01T11:15-07:00",
      "description" : "Where have Pippa and Tenma gone? What were they up to?? Let’s find out together with the rest of Phase ORIGINS!",
      "endDate" : "2024-06-01T12:45-07:00",
      "type" : "Panel",
      "id" : "28",
      "presenters" : [
        {
          "name" : "Pipkin Pippa"
        },
        {
          "name" : "Tenma Maemi"
        },
        {
          "name" : "Rinkou Ashelia (Lia)"
        },
        {
          "name" : "Fujikura Uruka"
        },
        {
          "name" : "Hakushika Iori"
        },
        {
          "name" : "Utatane Nasa"
        },
        {
          "name" : ""
        },
        {
          "name" : "Shisui Michiru"
        }
      ],
      "maturity" : ""
    },
    {
      "endDate" : "2024-06-01T13:00-07:00",
      "maturity" : "",
      "startDate" : "2024-06-01T12:00-07:00",
      "description" : "Vivi Chan the Dragon leads a “seiso” musical sermon. Come by for SINGALONGS, SNACKS, and a chance to get BLESSED! Brothers CyberTygerVA, JohnLovesAnime, and Bread_SamaVT as well as Sister Dividia Storm will guide you as you enter…. the Church of Milk.",
      "id" : "29",
      "presenters" : [
        {
          "name" : "Vivi Chan the Dragon"
        },
        {
          "name" : "CyberTygerVA"
        },
        {
          "name" : "JohnLovesAnime"
        },
        {
          "name" : "Bread_SamaVT"
        },
        {
          "name" : ""
        },
        {
          "name" : "Dividia Storm"
        }
      ],
      "type" : "Panel",
      "location" : {
        "name" : "Panel Room 1"
      },
      "name" : "TAKE ME TO CHURCH!!"
    },
    {
      "name" : "Stream Deck Showcase: VTuber Edition",
      "id" : "30",
      "startDate" : "2024-06-01T12:00-07:00",
      "maturity" : "",
      "presenters" : [
        {
          "name" : "Chibi Miharu from Elgato"
        },
        {
          "name" : "Stormbeard from Elgato"
        }
      ],
      "location" : {
        "name" : "Panel Room 3"
      },
      "type" : "Panel",
      "endDate" : "2024-06-01T13:00-07:00",
      "description" : "Learn how to use Stream Deck as a VTuber. See the possibilities of Stream Deck live during the panel with Elgato staff. Stop by to get inspired, ask questions, and for a chance to win a Stream Deck XL, Stream Deck +, or Stream Deck Pedal (three winners)."
    },
    {
      "maturity" : "",
      "id" : "31",
      "presenters" : [
        {
          "name" : "Peoni Astera"
        }
      ],
      "startDate" : "2024-06-01T12:30-07:00",
      "type" : "Panel",
      "endDate" : "2024-06-01T13:30-07:00",
      "name" : "JINZOU FAIYA FAIBO WAIPA",
      "description" : "Hey you! Have you ever heard of… wotagei? Ever seen fans going wild with light sticks and cheering at a concert in Japan? Come and learn wotagei with me! All levels welcome – come chant, jump and wave your light sticks!",
      "location" : {
        "name" : "Community Stage"
      }
    },
    {
      "presenters" : [
        {
          "name" : "A.N.NJ. System"
        },
        {
          "name" : "domoarigathanks"
        }
      ],
      "startDate" : "2024-06-01T13:45-07:00",
      "endDate" : "2024-06-01T14:45-07:00",
      "id" : "32",
      "location" : {
        "name" : "Main Stage"
      },
      "description" : "For the past two years, we have been awestruck at all of the talented attendees who came to OffKai Expo in cosplay. This year, we are continuing to give them a place to shine on stage!  The Cosplay Showcase is an official event with hosts, a stage, and prizes. This event is not a contest!",
      "type" : "Performance",
      "name" : "Cosplay Showcase",
      "maturity" : ""
    },
    {
      "location" : {
        "name" : "Panel Room 1"
      },
      "type" : "Panel",
      "name" : "Are You Smarter Than A VTuber?",
      "maturity" : "",
      "id" : "33",
      "startDate" : "2024-06-01T14:00-07:00",
      "description" : "Are You Smarter Than A VTuber? 5 VTubers face off in a battle of wits with both general knowledge and VTuber related questions! Audience members will be able to be involved as well!",
      "endDate" : "2024-06-01T15:00-07:00",
      "presenters" : [
        {
          "name" : "Senz"
        },
        {
          "name" : "El_XoX"
        },
        {
          "name" : "YFUBaby"
        },
        {
          "name" : "Riikami"
        },
        {
          "name" : "Alpha Aniki"
        },
        {
          "name" : "Taiga Chama"
        },
        {
          "name" : ""
        },
        {
          "name" : "Megalodon"
        }
      ]
    },
    {
      "description" : "Stop by to get to know idol ENCORE! Chikafuji Lisa, Enya Ignis, and Shabel Tonya will be answering your questions and more!",
      "maturity" : "",
      "id" : "34",
      "location" : {
        "name" : "Community Stage"
      },
      "type" : "Panel",
      "name" : "idol ENCORE: Q&A, Q&A, Q&A, REBOOT!",
      "startDate" : "2024-06-01T14:30-07:00",
      "endDate" : "2024-06-01T15:30-07:00",
      "presenters" : [
        {
          "name" : "Chikafuji Lisa"
        },
        {
          "name" : "Enya Ignis"
        },
        {
          "name" : ""
        },
        {
          "name" : "Shabel Tonya"
        }
      ]
    },
    {
      "name" : "Black don't crack",
      "type" : "Panel",
      "description" : "A showcase into the black v-tuber sphere!",
      "startDate" : "2024-06-01T14:30-07:00",
      "maturity" : "",
      "id" : "35",
      "endDate" : "2024-06-01T15:30-07:00",
      "presenters" : [
        {
          "name" : "Keiseira"
        }
      ],
      "location" : {
        "name" : "Panel Room 2"
      }
    },
    {
      "name" : "Henya the Genius x Koefficient Talk Show",
      "startDate" : "2024-06-01T16:00-07:00",
      "endDate" : "2024-06-01T17:00-07:00",
      "id" : "36",
      "maturity" : "",
      "presenters" : [
        {
          "name" : "Henya the Genius"
        },
        {
          "name" : "Koefficient"
        }
      ],
      "type" : "Panel",
      "description" : "Come see VShojo’s Henya the Genius as she talks to Koefficient and her fans about her latest activities! She’ll also be taking questions!",
      "location" : {
        "name" : "Main Stage"
      }
    },
    {
      "endDate" : "2024-06-01T17:00-07:00",
      "description" : "The newest announcements from yuri visual novel developer Studio Élan + a hangout session and livedrawing with the members of Studio Élan and Virtuality Project",
      "location" : {
        "name" : "Panel Room 3"
      },
      "startDate" : "2024-06-01T16:00-07:00",
      "name" : "Studio Élan x VirPro: Girls, Games, & Giveaways",
      "type" : "Panel",
      "presenters" : [
        {
          "name" : "Studio Élan"
        },
        {
          "name" : "Virtuality Project"
        }
      ],
      "maturity" : "",
      "id" : "37"
    },
    {
      "maturity" : "",
      "type" : "Panel",
      "startDate" : "2024-06-01T16:30-07:00",
      "presenters" : [
        {
          "name" : "Remilia Nephys"
        },
        {
          "name" : "Amanogawa Shiina"
        },
        {
          "name" : "Komachi Panko"
        },
        {
          "name" : "Erina Makina"
        },
        {
          "name" : "Himemiya Rie"
        },
        {
          "name" : ""
        },
        {
          "name" : "Chisaka Airi"
        }
      ],
      "description" : "Come receive your eDuCAtiOn at the ALiAS Academy! By the way education was not yet a requirement for Phase Connect back when ALiAS was recruited!",
      "endDate" : "2024-06-01T17:30-07:00",
      "id" : "38",
      "location" : {
        "name" : "Community Stage"
      },
      "name" : "Welcome to ALiAS Academy"
    },
    {
      "endDate" : "2024-06-01T17:30-07:00",
      "presenters" : [
        {
          "name" : "idol ES: EternalS"
        }
      ],
      "id" : "39",
      "name" : "EternalS Q&A \/ Preguntas y respuestas = Q&A !",
      "location" : {
        "name" : "Panel Room 1"
      },
      "type" : "Panel",
      "description" : "Newly Debuted Idol Gen: EternalS are answering community questions!",
      "maturity" : "",
      "startDate" : "2024-06-01T16:30-07:00"
    },
    {
      "maturity" : "",
      "name" : "VOLs Guesser - Swing or get swung?-",
      "startDate" : "2024-06-01T16:30-07:00",
      "description" : "Flying in from South East Asia?! Challenge VOLs VTubers to create ever lasting memory through interactive quizzes and performance.",
      "location" : {
        "name" : "Panel Room 2"
      },
      "presenters" : [
        {
          "name" : "Aria Synth"
        },
        {
          "name" : "Shirousa Mikumi"
        },
        {
          "name" : "Minazuki Mana"
        },
        {
          "name" : "Mayuno A. Charlotte"
        },
        {
          "name" : ""
        },
        {
          "name" : "Angy Catto"
        }
      ],
      "endDate" : "2024-06-01T17:30-07:00",
      "id" : "40",
      "type" : "Panel"
    },
    {
      "maturity" : "",
      "endDate" : "2024-06-01T19:00-07:00",
      "id" : "41",
      "startDate" : "2024-06-01T18:00-07:00",
      "description" : "VTubing: An Australian Perspective is a panel on 4 Australian VTubers and their experiences at the far side of the globe down under – the fun and difficulties that are involved with being an Australian content creator presented to you by Clio Aite, Hanya, Mako Fukasame, and Jean Faymas.",
      "type" : "Panel",
      "name" : "VTubing: An Australian Perspective",
      "presenters" : [
        {
          "name" : "Vershion AUS"
        }
      ],
      "location" : {
        "name" : "Panel Room 3"
      }
    },
    {
      "type" : "Performance",
      "startDate" : "2024-06-01T18:30-07:00",
      "location" : {
        "name" : "Community Stage"
      },
      "presenters" : [
        {
          "name" : "Dee the Sphinx"
        }
      ],
      "maturity" : "",
      "id" : "42",
      "description" : "Embark on an interactive adventure with Dee the Sphinx at her Rhythm Realm Panel! Join the Rhythm fun as you the audience guide the hero through multiple levels of music-fileld excitement. Get ready to tap, smack, shout, and groove to the beat in this thrilling interactive experience!",
      "endDate" : "2024-06-01T19:30-07:00",
      "name" : "Rhythm Realm: Interactive Audience Adventure"
    },
    {
      "description" : "The basics of burnout and how to avoid it as a content creator",
      "location" : {
        "name" : "Panel Room 1"
      },
      "startDate" : "2024-06-01T18:30-07:00",
      "type" : "Panel",
      "endDate" : "2024-06-01T19:30-07:00",
      "id" : "43",
      "maturity" : "",
      "name" : "Burnout 101",
      "presenters" : [
        {
          "name" : "Zumi"
        }
      ]
    },
    {
      "maturity" : "",
      "startDate" : "2024-06-01T19:30-07:00",
      "name" : "OffKai Live: Light up the Night",
      "endDate" : "2024-06-01T22:30-07:00",
      "id" : "44",
      "location" : {
        "name" : "Main Stage"
      },
      "description" : "Raise your penlights and cheer for your oshi! Presenting our concert event once more, OffKai Live 2024 will feature over 3h of live music performances.  MC by Koefficient and Vivi Chan The Dragon  Opening Act: OffChoir directed by eebeegames  OffChoir is OffKai Expo’s community choir! With a goal of bringing the VTuber fan community together, OffChoir will be performing a medley of iconic VTuber songs from 2022-2023 to celebrate VTuber music!",
      "presenters" : [
        {
          "name" : "Kira Lily"
        },
        {
          "name" : "Miori Celesta"
        },
        {
          "name" : "Takanashi Kiara"
        },
        {
          "name" : "Bao The Whale"
        },
        {
          "name" : "Aruvn"
        },
        {
          "name" : ""
        },
        {
          "name" : "kirispica"
        }
      ],
      "type" : "Performance"
    },
    {
      "endDate" : "2024-06-02T02:00-07:00",
      "name" : "Anikura Dance Party",
      "presenters" : [
        {
          "name" : "AniCLover"
        },
        {
          "name" : "Axesniper"
        },
        {
          "name" : "Auvenil"
        },
        {
          "name" : "LinkCube"
        },
        {
          "name" : "Odyssey Eurobeat"
        },
        {
          "name" : "Piro"
        },
        {
          "name" : ""
        },
        {
          "name" : "Spiritsnare"
        }
      ],
      "type" : "Performance",
      "id" : "45",
      "maturity" : "",
      "description" : "Let’s party into the night with AniCLover and an exciting lineup of DJs who will bring VTuber and otaku music to dance floor!",
      "location" : {
        "name" : "Main Stage"
      },
      "startDate" : "2024-06-01T22:30-07:00"
    },
    {
      "presenters" : [
        {
          "name" : "Kumo Kuddelmuddel"
        },
        {
          "name" : "Reiyu Guigui"
        }
      ],
      "name" : "jast\/J18 Eroge\/Doujinshi Industry Panel: Working with Publishers",
      "description" : "Join the jast and J18 eroge and doujinshi publishing imprints, along with vtubers Reiyu Guigui and Kumo Kuddelmuddel for a discussion about hentai in game, manga, and printed form, as well as the benefits and challenges of working with indie publishing brands. Come for a chance to win a Saya no Uta fumofumo plush!",
      "location" : {
        "name" : "Panel Room 3"
      },
      "type" : "Panel",
      "startDate" : "2024-06-01T22:45-07:00",
      "endDate" : "2024-06-01T23:45-07:00",
      "id" : "46",
      "maturity" : "18+"
    },
    {
      "endDate" : "2024-06-02T11:00-07:00",
      "maturity" : "",
      "presenters" : [
        {
          "name" : "GX Aura"
        }
      ],
      "name" : "GX Aura’s Karaoke Concert",
      "description" : "A selection of anime, vocaloid, pop and Jpop songs performed by the browser gremlin – GX Aura!",
      "location" : {
        "name" : "Main Stage"
      },
      "id" : "47",
      "type" : "Performance",
      "startDate" : "2024-06-02T10:00-07:00"
    },
    {
      "description" : "A crash course on maximizing, harnessing and taking advantage of VR experiences as both a Vtuber, a fan and as business at Virtual Market.",
      "endDate" : "2024-06-02T11:30-07:00",
      "location" : {
        "name" : "Community Stage"
      },
      "type" : "Panel",
      "startDate" : "2024-06-02T10:30-07:00",
      "maturity" : "",
      "presenters" : [
        {
          "name" : "ChyadoSensei from VKet"
        },
        {
          "name" : "Lhun from VKet"
        }
      ],
      "name" : "Maximum immersion in VR - harnessing the power of Japanese creators and global fans -Virtual Market\/HIKKY",
      "id" : "48"
    },
    {
      "location" : {
        "name" : "Panel Room 1"
      },
      "startDate" : "2024-06-02T10:30-07:00",
      "type" : "Panel",
      "maturity" : "",
      "id" : "49",
      "presenters" : [
        {
          "name" : "Kaya Nishikino"
        },
        {
          "name" : "Charlotte Suzu"
        },
        {
          "name" : "Namiji Freesia"
        },
        {
          "name" : "Ran Tsukiha"
        },
        {
          "name" : ""
        },
        {
          "name" : "Hiyori Mokami"
        }
      ],
      "endDate" : "2024-06-02T11:30-07:00",
      "description" : "What say you about a trivia and Q&A party on Production kawaii’s panel that features our host, Hanamizuki’s Kaya Nishikino? We will also have co-panelists from across the generations ー Charlotte Suzu, Namiji Freesia, Ran Tsukiha, and Hiyori Mokami! Learn a thing or two about our talents and experience our definition of kawaii. ♡",
      "name" : "kawaii Trivia Party (+Q&A)"
    },
    {
      "type" : "Panel",
      "endDate" : "2024-06-02T12:00-07:00",
      "maturity" : "",
      "name" : "How To Dedicate Your Life To Your Oshi",
      "location" : {
        "name" : "Panel Room 3"
      },
      "description" : "Bring your notepads and pens for an educational and slightly satirical show about selling your soul to your ride or die favourite creator! Join Petrichoral to hear more about what you can do as a viewer that best helps your favourite VTuber!",
      "startDate" : "2024-06-02T11:00-07:00",
      "id" : "50",
      "presenters" : [
        {
          "name" : "Petrichoral"
        }
      ]
    },
    {
      "name" : "Ex-PRISM Comeback Concert",
      "id" : "51",
      "description" : "Former PRISM Project members present: The Comeback Concert!! Returning as indie VTubers, Iku Hoshifuri, Aoi Tokimori, Rita Kamishiro, Shiki Miyoshino, Pina Pengin, Ami Amami, Jun Akane, Mako Sameshima, and Nana Asteria are putting on a musical show just for Offkai Expo! Tune in for vocal performances that will have you on the edge of your seat! And it looks like they’re going to have a special announcement too….? Don’t miss out! See you there!",
      "location" : {
        "name" : "Main Stage"
      },
      "startDate" : "2024-06-02T12:00-07:00",
      "endDate" : "2024-06-02T13:00-07:00",
      "type" : "Performance",
      "presenters" : [
        {
          "name" : "Ex-PRISM"
        }
      ],
      "maturity" : ""
    },
    {
      "startDate" : "2024-06-02T12:00-07:00",
      "name" : "Make 'em laugh! How to level up your entertainment skills!",
      "id" : "52",
      "endDate" : "2024-06-02T13:00-07:00",
      "type" : "Panel",
      "maturity" : "",
      "location" : {
        "name" : "Panel Room 2"
      },
      "presenters" : [
        {
          "name" : "Miss Lala"
        }
      ],
      "description" : "Order up, ’cause Miss Lala will be dishin’ tips and tricks of the trade to better immerse, engage and entertain your community!"
    },
    {
      "presenters" : [
        {
          "name" : "Sena Bonbon"
        }
      ],
      "location" : {
        "name" : "Community Stage"
      },
      "endDate" : "2024-06-02T13:30-07:00",
      "maturity" : "",
      "description" : "Have you been seeing those fumo plushies all over? Join us for a panel where you’ll learn the art of crafting your very own fumo plush! From basic stitching techniques to personalized designs, this session is perfect for both beginners and seasoned crafters.",
      "name" : "Fumo Fun: Plushie Crafting",
      "id" : "53",
      "type" : "Panel",
      "startDate" : "2024-06-02T12:30-07:00"
    },
    {
      "description" : "Have an insanely specific niche interest? Ever wonder if there will ever be an oshi for you? Discover how to go about finding your kami oshi with the help of small corpo girls from V&U!",
      "location" : {
        "name" : "Panel Room 1"
      },
      "maturity" : "",
      "presenters" : [
        {
          "name" : "Yurikago Kokone"
        },
        {
          "name" : "Suri Solari"
        },
        {
          "name" : "Ciccino Katterina"
        },
        {
          "name" : "D.K. Graves"
        },
        {
          "name" : ""
        },
        {
          "name" : "Meeta Osita"
        }
      ],
      "startDate" : "2024-06-02T12:30-07:00",
      "endDate" : "2024-06-02T13:30-07:00",
      "name" : "How To Find Your Small Corpo Kami Oshi!",
      "id" : "54",
      "type" : "Panel"
    },
    {
      "id" : "55",
      "type" : "Panel",
      "endDate" : "2024-06-02T14:00-07:00",
      "location" : {
        "name" : "Panel Room 3"
      },
      "startDate" : "2024-06-02T13:00-07:00",
      "maturity" : "",
      "description" : "Ever wanted to know what it was like to be transgender or gender-nonconforming in the VTubing space? Have you been considering VTubing as an option to express your truest self online? Come check out VTubing & Identity, a panel where VTubing and how it can help you explore your identity will be discussed. Panelists will discuss their experiences, provide advice for your own journey, and answer questions from the audience! Hosted by Pheesekai with co-panelists FaeriSami, Shyaren, and Ducky.",
      "presenters" : [
        {
          "name" : "Pheesekai"
        },
        {
          "name" : "FaeriSami"
        },
        {
          "name" : "Ducky"
        },
        {
          "name" : ""
        },
        {
          "name" : "Shyaren"
        }
      ],
      "name" : "VTubing and Identity"
    },
    {
      "startDate" : "2024-06-02T14:00-07:00",
      "name" : "A Hero and a Jester walk into a Con...",
      "type" : "Panel",
      "maturity" : "",
      "presenters" : [
        {
          "name" : "Regis Altare"
        },
        {
          "name" : "Gavis Bettel"
        }
      ],
      "id" : "56",
      "endDate" : "2024-06-02T15:00-07:00",
      "description" : "Altare and Bettel visit OffKai for the first time and they are inviting the audience to challenge them with interesting questions!",
      "location" : {
        "name" : "Main Stage"
      }
    },
    {
      "endDate" : "2024-06-02T15:30-07:00",
      "maturity" : "",
      "id" : "57",
      "location" : {
        "name" : "Community Stage"
      },
      "name" : "Making chat fun with live interaction",
      "presenters" : [
        {
          "name" : "Uwoslab"
        }
      ],
      "description" : "Demonstrating how to build an interactive chat experience using lights, sound, robotics, and other crazy IRL chat-controlled gimmicks. Audience participation is welcome!",
      "type" : "Panel",
      "startDate" : "2024-06-02T14:30-07:00"
    },
    {
      "name" : "VTuber Trivia Show (VTS)",
      "description" : "Introducing VTS (VTuber Trivia Show), where we delve into all things VTuber-related! It’s a quiz show packed with trivia about VTubers. Ready to put your knowledge to the test? We’re not just asking about the VTubers themselves; we’re throwing in challenging questions about the software and apps they use, like VTube Studio! VTS is hosted by Pina, with Mako, Shiki, and Aoi as contestants — and guess what? You can join them too! Don’t wait any longer; become a contestant and join the fun!",
      "presenters" : [
        {
          "name" : "Pina Pengin"
        },
        {
          "name" : "Aoi Tokimori"
        },
        {
          "name" : "Mako Sameshima"
        },
        {
          "name" : ""
        },
        {
          "name" : "Shiki Miyoshino"
        }
      ],
      "maturity" : "",
      "startDate" : "2024-06-02T14:30-07:00",
      "id" : "58",
      "type" : "Panel",
      "endDate" : "2024-06-02T15:30-07:00",
      "location" : {
        "name" : "Panel Room 1"
      }
    },
    {
      "id" : "59",
      "type" : "Closing Ceremony",
      "startDate" : "2024-06-02T16:00-07:00",
      "name" : "Closing Ceremony",
      "endDate" : "2024-06-02T16:30-07:00",
      "description" : "The end of OffKai Expo Gen 3! We’ll miss you!",
      "presenters" : [
        {
          "name" : "OffKai Expo"
        }
      ],
      "maturity" : "",
      "location" : {
        "name" : "Main Stage"
      }
    }
  ]
}
